<svg xmlns="http://www.w3.org/2000/svg" xmlns:xlink="http://www.w3.org/1999/xlink" viewBox="2123 1954.964 61.685 51.267">
  <defs>
    <style>
      .cls-1, .cls-2 {
        fill-rule: evenodd;
      }

      .cls-1 {
        fill: url(#linear-gradient);
      }

      .cls-2 {
        fill: #00171f;
      }
    </style>
    <linearGradient id="linear-gradient" y1="0.5" x2="1" y2="0.5" gradientUnits="objectBoundingBox">
      <stop offset="0" stop-color="#003459"/>
      <stop offset="1" stop-color="#007ea7"/>
    </linearGradient>
  </defs>
  <g id="_1628811493488" transform="translate(2123 1954.964)">
    <path id="Path_241" data-name="Path 241" class="cls-1" d="M22.339,85.012c.464-2.01,0-3.556-2.087-4.174-.928-.309-1.237,0-2.01.155a3.161,3.161,0,0,0-2.087-4.251,3.386,3.386,0,0,0-2.087.232,2.212,2.212,0,0,0,.309-1.855A3.137,3.137,0,0,0,11.9,72.645c-1-.309-1.159.155-2.01.309L3.247,66.461c-.464-.541-1.7-2.164-2.86-1.082A1.812,1.812,0,0,0,0,66.151v.464c0,.155.077.232.155.386.155.309,7.189,7.034,7.73,7.807C7.5,76.2,4.715,76.973,5.1,79.292A2.986,2.986,0,0,0,9.43,81.611c-.232,1-.773,2.087.541,3.478a2.885,2.885,0,0,0,3.478.7,3.037,3.037,0,0,0-.232,1.855c.541,1.855,2.319,3.169,4.406,2.164-.155.618-.386.618-.386,1.546.155,1.855,2.705,4.329,5.256,1.778A14.52,14.52,0,0,0,24.349,91.2c1.314.85,4.02,4.251,5.488,5.179,2.783,1.7,6.184-.773,6.261-3.478,2.628-.618,3.556-1.546,4.174-4.174a4.454,4.454,0,0,0,4.02-4.02c2.242-.541,3.788-1.623,4.1-4.02.386-2.474-2.164-3.788-3.015-5.1.773-.464,6.493-6.416,7.73-7.653,1.623-1.546.464-2.087-1.855-4.406l-9.662-9.662a19.248,19.248,0,0,0-2.783-1c-2.01-.7-3.865-1.159-5.875-1.855-1.082-.309-1.932-.541-2.937-.928-4.251-1.391-8.657-.309-10.435,3.556l-3.478,8.116c-1.237,2.86-3.169,5.411-.232,8.039A4.979,4.979,0,0,0,23.5,68.548c.928-1.546,1.7-3.633,2.86-4.87.618-.7,1.623-1.314,2.474-.773L44.37,78.442c.618.541,1.623,1.159,1.237,2.474a1.652,1.652,0,0,1-2.4.85L39.422,77.9a1.33,1.33,0,0,0-2.319.7c-.155.928,1,1.7,1.546,2.242,1.855,1.855,3.633,2.937,2.783,4.406a1.608,1.608,0,0,1-2.551.386l-3.865-3.865A1.3,1.3,0,0,0,33.007,83c.077.7,1.237,1.623,1.778,2.164.618.618,1.237,1.237,1.932,1.855.464.541,1.391,1.237.541,2.474-1.391,1.932-3.478-.928-4.561-2.01-.464-.386-1.546-1.623-2.087-1.778a1.246,1.246,0,0,0-1.546,1.7,29.793,29.793,0,0,0,3.788,3.942c.928,1,.773,2.01-.077,2.551-1.159.85-1.778.077-2.474-.618a47.387,47.387,0,0,1-3.942-3.942c.077-.85.464-1,.309-1.932a4.978,4.978,0,0,0-.85-1.546C24.581,84.394,23.267,84.935,22.339,85.012Z" transform="translate(0 -45.667)"/>
    <path id="Path_242" data-name="Path 242" class="cls-2" d="M568.971,13.141c0-1.932-1.314-2.705-2.705-4.1L563.1,5.875c-1.082-1.082-2.087-2.01-3.169-3.169C558.3,1.082,557.84,0,555.752,0c-1.159,0-2.783,2.087-3.556,2.783-1.932,2.01-3.633,3.247-1.237,5.643l7.962,7.962c.928.928,2.087,2.551,3.556,2.86,1.7.309,3.865-2.474,5.411-4.02A2.779,2.779,0,0,0,568.971,13.141Z" transform="translate(-507.286)"/>
  </g>
</svg>
