<svg xmlns="http://www.w3.org/2000/svg" xmlns:xlink="http://www.w3.org/1999/xlink" viewBox="0 0 375 667">
  <defs>
    <style>
      .cls-1 {
        clip-path: url(#clip-iPhone_6_7_8_1);
      }

      .cls-2 {
        opacity: 0.05;
      }

      .cls-3, .cls-4 {
        fill-rule: evenodd;
      }

      .cls-3 {
        fill: url(#linear-gradient);
      }

      .cls-4 {
        fill: #00171f;
      }

      .cls-5 {
        fill: #fff;
      }
    </style>
    <linearGradient id="linear-gradient" y1="0.5" x2="1" y2="0.5" gradientUnits="objectBoundingBox">
      <stop offset="0" stop-color="#003459"/>
      <stop offset="1" stop-color="#007ea7"/>
    </linearGradient>
    <clipPath id="clip-iPhone_6_7_8_1">
      <rect width="375" height="667"/>
    </clipPath>
  </defs>
  <g id="iPhone_6_7_8_1" data-name="iPhone 6/7/8 – 1" class="cls-1">
    <rect class="cls-5" width="375" height="667"/>
    <g id="_1628811493488" class="cls-2" transform="translate(0 236.344)">
      <path id="Path_241" data-name="Path 241" class="cls-3" d="M135.808,264.951c2.82-12.191,0-21.569-12.688-25.32-5.639-1.876-7.519,0-12.218.938,5.639-12.191-4.229-23.913-12.688-25.789-7.049-1.407-8.459.469-12.688,1.407,1.88-3.751,3.289-6.564,1.88-11.253-1.88-7.971-7.049-13.129-15.038-15-6.109-1.876-7.049.938-12.218,1.876L19.737,152.417c-2.82-3.282-10.338-13.129-17.387-6.564A10.984,10.984,0,0,0,0,150.542v2.813c0,.938.47,1.407.94,2.344.94,1.876,43.7,42.669,46.993,47.358-2.35,8.44-19.267,13.129-16.917,27.2,1.41,11.253,14.1,20.631,26.316,14.067-1.41,6.1-4.7,12.66,3.289,21.1,5.169,5.158,12.688,8.44,21.147,4.22-1.41,4.689-2.35,6.1-1.41,11.253,3.289,11.253,14.1,19.224,26.786,13.129-.94,3.751-2.35,3.751-2.35,9.378.94,11.253,16.447,26.258,31.955,10.784,3.759-3.751,8.459-7.5,11.278-11.722,7.989,5.158,24.436,25.789,33.365,31.416,16.917,10.316,37.594-4.689,38.064-21.1,15.977-3.751,21.617-9.378,25.376-25.32,12.218-.469,23.966-12.191,24.436-24.382,13.628-3.282,23.026-9.847,24.906-24.382,2.35-15-13.158-22.976-18.327-30.947,4.7-2.813,39.474-38.918,46.993-46.42,9.868-9.378,2.82-12.66-11.278-26.727L252.82,75.988c-3.289-2.344-12.218-4.22-16.917-6.1-12.218-4.22-23.5-7.033-35.714-11.253-6.579-1.876-11.748-3.282-17.857-5.627-25.846-8.44-52.632-1.876-63.44,21.569L97.744,123.815c-7.519,17.349-19.267,32.822-1.41,48.764,15.038,13.6,36.654,8.44,46.523-7.5,5.639-9.378,10.338-22.038,17.387-29.54,3.759-4.22,9.868-7.971,15.038-4.689L269.737,225.1c3.759,3.282,9.868,7.033,7.519,15-1.41,5.627-9.4,8.44-14.568,5.158l-23.026-23.444c-5.639-5.158-13.158-2.344-14.1,4.22-.94,5.627,6.109,10.316,9.4,13.6,11.278,11.253,22.087,17.818,16.917,26.727a9.787,9.787,0,0,1-15.508,2.344l-23.5-23.444c-5.169-3.751-12.688.469-12.218,7.5.47,4.22,7.519,9.847,10.808,13.129,3.759,3.751,7.519,7.5,11.748,11.253,2.82,3.282,8.459,7.5,3.289,15-8.459,11.722-21.147-5.627-27.726-12.191-2.82-2.344-9.4-9.847-12.688-10.784-7.519-2.344-11.748,5.158-9.4,10.316,1.88,4.22,18.327,19.693,23.026,23.913,5.639,6.1,4.7,12.191-.47,15.473-7.049,5.158-10.808.469-15.038-3.751-6.109-5.627-19.737-18.287-23.966-23.913.47-5.158,2.82-6.1,1.88-11.722-.94-2.813-3.289-7.5-5.169-9.378C149.436,261.2,141.447,264.482,135.808,264.951Z" transform="translate(0 -26.286)"/>
      <path id="Path_242" data-name="Path 242" class="cls-4" d="M666.427,79.711c0-11.722-7.989-16.411-16.447-24.851L630.712,35.636c-6.579-6.564-12.688-12.191-19.267-19.224C601.577,6.564,598.758,0,586.069,0c-7.048,0-16.917,12.66-21.616,16.88-11.748,12.191-22.086,19.693-7.519,34.229l48.4,48.3c5.639,5.627,12.688,15.473,21.616,17.349,10.339,1.876,23.5-15,32.895-24.382C663.137,89.089,666.427,85.807,666.427,79.711Z" transform="translate(-291.427)"/>
    </g>
  </g>
</svg>
